non-FPGA/output/waves.vcd
$date
	Thu Oct 20 15:29:02 2022
$end

$version
	Synopsys VCS version R-2020.12
$end

$timescale
	1ps
$end

$comment Csum: 1 8555ad8ad3120744 $end


$scope module testbench $end
$var reg 1 ! clk $end
$var wire 1 " finished $end
$var reg 32 # clk_count [31:0] $end

$scope module proc $end
$var wire 1 ! clk $end
$var reg 1 " finished $end
$var wire 32 $ instruction [31:0] $end
$var reg 1 % clk1 $end
$var reg 1 & clk2 $end
$var reg 1 ' clk3 $end
$var reg 1 ( clk4 $end
$var reg 1 ) clk5 $end
$var wire 3 * inst_type [2:0] $end
$var wire 3 + inst_type_fwd [2:0] $end
$var wire 3 , inst_type_fwd2 [2:0] $end
$var wire 1 - has_imm $end
$var wire 1 . has_source_1 $end
$var wire 1 / has_source_2 $end
$var wire 1 0 has_target $end
$var wire 1 1 has_j $end
$var wire 32 2 imm [31:0] $end
$var wire 32 3 imm_fwd [31:0] $end
$var wire 5 4 source_1 [4:0] $end
$var wire 5 5 source_2 [4:0] $end
$var wire 5 6 target [4:0] $end
$var wire 5 7 target_fwd [4:0] $end
$var wire 5 8 target_fwd2 [4:0] $end
$var wire 26 9 Joffset [25:0] $end
$var wire 26 : Joffset_fwd [25:0] $end
$var reg 1 ; reg_write_en $end
$var reg 5 < reg_write_dest [4:0] $end
$var reg 32 = reg_write_data [31:0] $end
$var reg 32 > source_1_read [31:0] $end
$var reg 32 ? source_2_read [31:0] $end
$var reg 32 @ target_read [31:0] $end
$var reg 5 A sourceA [4:0] $end
$var reg 5 B sourceB [4:0] $end
$var reg 32 C A [31:0] $end
$var reg 32 D B [31:0] $end
$var reg 32 E result [31:0] $end
$var reg 1 F predicted $end
$var reg 1 G stall $end
$var reg 32 H wb_fwd_tapout_value [31:0] $end
$var reg 5 I wb_fwd_tapout_target [4:0] $end
$var reg 32 J mw_fwd_tapout_value [31:0] $end
$var reg 5 K mw_fwd_tapout_target [4:0] $end
$var wire 26 L pc_inc [25:0] $end

$scope module IF $end
$var wire 1 ! clk $end
$var wire 26 L pc_inc [25:0] $end
$var wire 1 G prev_stalled $end
$var reg 32 $ instruction [31:0] $end
$var reg 3 * inst_type [2:0] $end
$var reg 1 - has_imm $end
$var reg 1 . has_source_1 $end
$var reg 1 / has_source_2 $end
$var reg 1 0 has_target $end
$var reg 1 1 has_j $end
$var reg 32 M imm [31:0] $end
$var reg 5 4 source_1 [4:0] $end
$var reg 5 5 source_2 [4:0] $end
$var reg 5 6 target [4:0] $end
$var reg 26 N Joffset [25:0] $end
$var reg 1 F predicted $end
$var reg 1 " finished $end
$var reg 8 O supported_addr [7:0] $end
$var reg 32 P pc [31:0] $end
$var reg 32 Q pc_rollback [31:0] $end
$var reg 32 R next_branch_pc [31:0] $end
$var reg 32 S next_jump_pc [31:0] $end
$var reg 2 T predictor_2b [1:0] $end
$var reg 1 U prev_inst_branch $end
$var reg 1 V prev_inst_jump $end
$var reg 81 W inst_name [80:0] $end
$var reg 5 X prev_load_target_reg [4:0] $end
$var reg 1 Y prev_inst_load $end
$var reg 4 Z pipe_clean [3:0] $end
$upscope $end


$scope module ID $end
$var wire 1 ! read_clk $end
$var wire 1 ! writeback_clk $end
$var wire 1 ; reg_write_en $end
$var wire 5 < reg_write_dest [4:0] $end
$var wire 32 = reg_write_data [31:0] $end
$var wire 5 4 reg_read_addr_1 [4:0] $end
$var wire 5 5 reg_read_addr_2 [4:0] $end
$var wire 26 [ Joffset [25:0] $end
$var wire 3 * inst_type [2:0] $end
$var wire 1 - has_imm $end
$var wire 32 2 imm [31:0] $end
$var wire 5 6 target [4:0] $end
$var reg 32 > reg_read_data_1 [31:0] $end
$var reg 32 ? reg_read_data_2 [31:0] $end
$var reg 32 \ A [31:0] $end
$var reg 32 ] B [31:0] $end
$var reg 5 A sourceA [4:0] $end
$var reg 5 B sourceB [4:0] $end
$var reg 32 H wb_fwd_tapout_value [31:0] $end
$var reg 5 I wb_fwd_tapout_target [4:0] $end
$var reg 3 + inst_type_fwd [2:0] $end
$var reg 32 3 imm_fwd [31:0] $end
$var reg 26 ^ Joffset_fwd [25:0] $end
$var reg 5 7 target_fwd [4:0] $end
$var reg 5 _ reg_read_addr_1_in [4:0] $end
$var reg 5 ` reg_read_addr_2_in [4:0] $end
$var reg 32 a imm_in [31:0] $end
$var reg 1 b has_imm_in $end
$var reg 5 c reg_write_dest_in [4:0] $end
$var reg 32 d reg_write_data_in [31:0] $end
$var reg 1 e reg_write_en_in $end
$var reg 3 f inst_type_in [2:0] $end

$scope begin unnamed$$_0 $end
$upscope $end

$upscope $end


$scope module EX $end
$var wire 1 ! clk $end
$var wire 32 g A [31:0] $end
$var wire 32 h B [31:0] $end
$var wire 32 i imm [31:0] $end
$var wire 3 + inst_type [2:0] $end
$var wire 26 j Joffset [25:0] $end
$var wire 5 7 target [4:0] $end
$var wire 5 A sourceA [4:0] $end
$var wire 5 B sourceB [4:0] $end
$var wire 32 J mw_fwd_tapout_value [31:0] $end
$var wire 5 K mw_fwd_tapout_target [4:0] $end
$var wire 32 H wb_fwd_tapout_value [31:0] $end
$var wire 5 I wb_fwd_tapout_target [4:0] $end
$var wire 1 F predicted $end
$var reg 1 G stall $end
$var reg 32 k result [31:0] $end
$var reg 26 L pc_inc [25:0] $end
$var reg 3 , inst_type_fwd [2:0] $end
$var reg 5 8 target_fwd [4:0] $end
$var reg 3 l inst_type_in [2:0] $end
$var reg 32 m Ain [31:0] $end
$var reg 32 n Bin [31:0] $end
$var reg 32 o imm_in [31:0] $end
$var reg 26 p Joffset_in [25:0] $end
$var reg 1 q b_taken $end
$var reg 5 r target_in [4:0] $end
$var reg 5 s last_target [4:0] $end
$var reg 32 t last_result [31:0] $end
$var reg 5 u sourceA_in [4:0] $end
$var reg 5 v sourceB_in [4:0] $end
$upscope $end


$scope module MEM $end
$var wire 1 ! mem_clk $end
$var wire 3 , inst_type [2:0] $end
$var wire 5 8 target [4:0] $end
$var wire 32 w result [31:0] $end
$var reg 32 J mw_fwd_tapout_value [31:0] $end
$var reg 5 K mw_fwd_tapout_target [4:0] $end
$var reg 5 < reg_write_dest [4:0] $end
$var reg 32 = reg_write_data [31:0] $end
$var reg 1 ; reg_write_en $end
$var reg 6 x byte_address [5:0] $end
$var reg 8 y mem_read_addr [7:0] $end
$var reg 3 z inst_type_in [2:0] $end
$var reg 5 { target_in [4:0] $end
$var reg 32 | result_in [31:0] $end
$upscope $end

$upscope $end

$upscope $end

$enddefinitions $end

#0
$dumpvars
x-
x1
x.
x/
x0
xq
0!
xb
xF
0U
0V
0Y
0"
0;
xe
xG
bxxxxxxxxxxxxxxxxxxxxxxxxxxxxxxxx C
bxxxxxxxxxxxxxxxxxxxxxxxxxxxxxxxx m
bxxxxxxxxxxxxxxxxxxxxxxxxxxxxxxxx D
bxxxxxxxxxxxxxxxxxxxxxxxxxxxxxxxx n
bxxxxxxxxxxxxxxxxxxxxxxxxxxxxxxxx g
bxxxxxxxxxxxxxxxxxxxxxxxxxxxxxxxx h
bxxxxxxxxxxxxxxxxxxxxxxxxxx j
bxxxxxxxxxxxxxxxxxxxxxxxxxxxxxxxx i
bxxxxxxxxxxxxxxxxxxxxxxxxxxxxxxxx o
bxxx ,
bxxx l
bxxxxxxxxxxxxxxxxxxxxxxxxxx L
bxxxxxxxxxxxxxxxxxxxxxxxxxxxxxxxx k
bxxxxx 8
bxxxxxxxxxxxxxxxxxxxxxxxxxxxxxxxx \
bxxxxxxxxxxxxxxxxxxxxxxxxxxxxxxxx ]
bxxxxxxxxxxxxxxxxxxxxxxxxxx [
bxxxxxxxxxxxxxxxxxxxxxxxxxx ^
bxxxxxxxxxxxxxxxxxxxxxxxxxxxxxxxx 3
bxxx +
bxxxxx 7
bxxxxxxxxxxxxxxxxxxxxxxxxxx N
bxxxxxxxxxxxxxxxxxxxxxxxxxxxxxxxx M
bxxx *
bxxxxx 4
bxxxxx 5
bxxxxx 6
bxxxxxxxxxxxxxxxxxxxxxxxxxx 9
bxxxxxxxxxxxxxxxxxxxxxxxxxx :
bxxxxxxxxxxxxxxxxxxxxxxxxxx p
bxxx z
bxxxxxxxxxxxxxxxxxxxxxxxxxxxxxxxx w
bxxxxx {
bxxxxxx x
bxxxxxxxxxxxxxxxxxxxxxxxxxxxxxxxx 2
bxxxxxxxxxxxxxxxxxxxxxxxxxxxxxxxx a
bxxxxxxxxxxxxxxxxxxxxxxxxxxxxxxxxxxxxxxxxxxxxxxxxxxxxxxxxxxxxxxxxxxxxxxxxxxxxxxxxx W
bxxx f
bxxxxxxxxxxxxxxxxxxxxxxxxxxxxxxxx $
bxxxxxxxxxxxxxxxxxxxxxxxxxxxxxxxx t
bxxxxx s
bxxxxxxxx y
bxxxxx K
bxxxxxxxxxxxxxxxxxxxxxxxxxxxxxxxx J
bxxxxxxxxxxxxxxxxxxxxxxxxxxxxxxxx R
bxxxxxxxxxxxxxxxxxxxxxxxxxxxxxxxx S
b00000000000000000000000000000000 P
bxxxxxxxxxxxxxxxxxxxxxxxxxxxxxxxx Q
b0100 Z
b00 T
bxxxxx X
bxxxxx _
bxxxxx `
bxxxxxxxxxxxxxxxxxxxxxxxxxxxxxxxx =
bxxxxxxxxxxxxxxxxxxxxxxxxxxxxxxxx d
bxxxxx <
bxxxxx c
bxxxxxxxxxxxxxxxxxxxxxxxxxxxxxxxx E
bxxxxxxxxxxxxxxxxxxxxxxxxxxxxxxxx |
bxxxxx A
bxxxxx u
bxxxxx B
bxxxxx v
bxxxxxxxxxxxxxxxxxxxxxxxxxxxxxxxx >
bxxxxxxxxxxxxxxxxxxxxxxxxxxxxxxxx ?
bxxxxxxxx O
bxxxxx r
bxxxxx I
bxxxxxxxxxxxxxxxxxxxxxxxxxxxxxxxx H
b00000000000000000000000000000000 #
bxxxxxxxxxxxxxxxxxxxxxxxxxxxxxxxx @
x)
x(
x'
x&
x%
$end
#5000
1!
b00000000000000000000000000000001 #
b00000000 O
b00100100000001110000000000001001 $
b00000000000000000000000000001001 M
b00000000000000000000000000001001 2
b00000001110000000000001001 N
b00000001110000000000001001 9
b00000001110000000000001001 [
1-
1.
0/
10
01
b010 *
b00000 4
b00111 6
b000000000000000000000000000000000000000000100000101000100010001000100100101010101 W
b00000 X
b00000000000000000000000000000100 P
b00000 s
b00000000000000000000000000000000 t
b00000000000000000000000000000000 =
b00000000000000000000000000000000 J
0e
b00000 _
b00000000000000000000000000001001 a
1b
b010 f
b00000001110000000000001001 ^
b00000001110000000000001001 :
b00000001110000000000001001 j
b00111 7
#10000
0!
#15000
1!
b00000000000000000000000000000010 #
b00000001 O
b00100100000000110000000000000000 $
b00000000000000000000000000000000 M
b00000000000000000000000000000000 2
b00000000110000000000000000 N
b00000000110000000000000000 9
b00000000110000000000000000 [
b00011 6
b00000000000000000000000000001000 P
b010 +
b00000000000000000000000000001001 3
b00000000000000000000000000001001 i
b00000000000000000000000000000000 >
b00000000000000000000000000000000 \
b00000000000000000000000000000000 C
b00000000000000000000000000000000 g
b00000 A
b00000000000000000000000000001001 ]
b00000000000000000000000000001001 D
b00000000000000000000000000001001 h
b00000 B
b00000000000000000000000000000000 d
b00000000000000000000000000000000 a
b00000000110000000000000000 ^
b00000000110000000000000000 :
b00000000110000000000000000 j
b00011 7
b010 l
b00000000000000000000000000000000 m
b00000000000000000000000000001001 n
b00000000000000000000000000001001 o
b00000001110000000000001001 p
b00111 r
b00000 u
b00000 v
#20000
0!
#25000
1!
b00000000000000000000000000000011 #
b00000010 O
b00100100000001010000000000100100 $
b00000000000000000000000000100100 M
b00000000000000000000000000100100 2
b00000001010000000000100100 N
b00000001010000000000100100 9
b00000001010000000000100100 [
b00101 6
b00000000000000000000000000001100 P
b00000000000000000000000000000000 3
b00000000000000000000000000000000 i
b00000000000000000000000000000000 ]
b00000000000000000000000000000000 D
b00000000000000000000000000000000 h
b010 ,
b00111 8
b00000000000000000000000000001001 k
b00000000000000000000000000001001 E
b00000000000000000000000000001001 w
b00000000000000000000000000100100 a
b00000001010000000000100100 ^
b00000001010000000000100100 :
b00000001010000000000100100 j
b00101 7
b00000000000000000000000000000000 n
b00000000000000000000000000000000 o
b00000000110000000000000000 p
b00011 r
b010 z
b00111 {
b00000000000000000000000000001001 |
#30000
0!
#35000
1!
b00000000000000000000000000000100 #
b00000011 O
b00000000000000000000100000100001 $
b00000000000000000000100000100001 M
b00000000000000000000100000100001 2
b00000000000000100000100001 N
b00000000000000100000100001 9
b00000000000000100000100001 [
0-
1/
b001 *
b00000 5
b00001 6
b000000000000000000000000000000000000000000000000001000001010001000100010001010101 W
b00000000000000000000000000010000 P
b00000000000000000000000000100100 3
b00000000000000000000000000100100 i
b00000000000000000000000000100100 ]
b00000000000000000000000000100100 D
b00000000000000000000000000100100 h
b00011 8
b00000000000000000000000000000000 k
b00000000000000000000000000000000 E
b00000000000000000000000000000000 w
b00111 <
b00000000000000000000000000001001 =
1;
b00000000000000000000000000001001 J
b00111 K
b00000 `
b00000000000000000000100000100001 a
0b
b001 f
b00000000000000100000100001 ^
b00000000000000100000100001 :
b00000000000000100000100001 j
b00001 7
b00000000000000000000000000100100 n
b00000000000000000000000000100100 o
b00000001010000000000100100 p
b00101 r
b00011 {
b00000000000000000000000000000000 |
#40000
0!
#45000
1!
b00000000000000000000000000000101 #
b00000100 O
b00010000111000000000000000001000 $
b00000000000000000000000000001000 M
b00000000000000000000000000001000 2
b00111000000000000000001000 N
b00111000000000000000001000 9
b00111000000000000000001000 [
0F
b00000000000000000000000000110100 Q
b00000000000000000000000000010100 R
1U
1-
00
b101 *
b00111 4
b00000 6
b000000000000000000000000000000000000000000000000000000000010000100100010101010001 W
b00000000000000000000000000010100 P
b001 +
b00000000000000000000100000100001 3
b00000000000000000000100000100001 i
b00000000000000000000000000000000 ?
b00000000000000000000000000000000 ]
b00000000000000000000000000000000 D
b00000000000000000000000000000000 h
b00101 8
b00000000000000000000000000100100 k
b00000000000000000000000000100100 E
b00000000000000000000000000100100 w
b00101 s
b00000000000000000000000000100100 t
b00000000000000000000000000000000 =
b00011 <
b00000000000000000000000000000000 J
b00011 K
1e
b00111 c
b00000000000000000000000000001001 d
b00000000000000000000000000001001 H
b00111 I
b00111 _
b00000000000000000000000000001000 a
1b
b101 f
b00111000000000000000001000 ^
b00111000000000000000001000 :
b00111000000000000000001000 j
b00000 7
b001 l
b00000000000000000000000000000000 n
b00000000000000000000100000100001 o
b00000000000000100000100001 p
b00001 r
b00101 {
b00000000000000000000000000100100 |
#50000
0!
#55000
1!
b00000000000000000000000000000110 #
b00000101 O
b10001100011000100000000000000000 $
b00000000000000000000000000000000 M
b00000000000000000000000000000000 2
b00011000100000000000000000 N
b00011000100000000000000000 9
b00011000100000000000000000 [
0U
0/
10
b100 *
b00011 4
b00010 6
b000000000000000000000000000000000000000000000000000000000000000000100110001010111 W
1Y
b00010 X
b00000000000000000000000000011000 P
b101 +
b00000000000000000000000000001000 3
b00000000000000000000000000001000 i
b00000000000000000000000000001001 >
b00000000000000000000000000001001 \
b00000000000000000000000000001001 C
b00000000000000000000000000001001 g
b00111 A
b001 ,
b00001 8
b00000 s
b00000000000000000000000000000000 t
b00000000000000000000000000000000 k
b00000000000000000000000000000000 E
b00000000000000000000000000000000 w
b00101 <
b00000000000000000000000000100100 =
b00000000000000000000000000100100 J
b00101 K
b00011 c
b00000000000000000000000000000000 d
b00000000000000000000000000000000 H
b00011 I
b00011 _
b00000000000000000000000000000000 a
b100 f
b00011000100000000000000000 ^
b00011000100000000000000000 :
b00011000100000000000000000 j
b00010 7
b101 l
b00000000000000000000000000001001 m
b00000000000000000000000000001000 o
b00111000000000000000001000 p
b00000 r
b00111 u
b001 z
b00001 {
b00000000000000000000000000000000 |
#60000
0!
#65000
1!
b00000000000000000000000000000111 #
b00000110 O
b10001100101001000000000000000000 $
b00101001000000000000000000 N
b00101001000000000000000000 9
b00101001000000000000000000 [
b00101 4
b00100 6
b00100 X
b00000000000000000000000000011100 P
b100 +
b00000000000000000000000000000000 3
b00000000000000000000000000000000 i
b00000000000000000000000000000000 >
b00000000000000000000000000000000 \
b00000000000000000000000000000000 C
b00000000000000000000000000000000 g
b00011 A
b101 ,
b00000 8
0q
0G
b00000000000000000000000000 L
b00000000000000000000000000000000 =
b00001 <
b00000000000000000000000000000000 J
b00001 K
b00101 c
b00000000000000000000000000100100 d
b00000000000000000000000000100100 H
b00101 I
b00101 _
b00101001000000000000000000 ^
b00101001000000000000000000 :
b00101001000000000000000000 j
b00100 7
b100 l
b00000000000000000000000000000000 m
b00000000000000000000000000000000 o
b00011000100000000000000000 p
b00010 r
b00011 u
b101 z
b00000 {
#70000
0!
#75000
1!
b00000000000000000000000000001000 #
b00000111 O
b00000000010001000001000000011000 $
b00000000000000000001000000011000 M
b00000000000000000001000000011000 2
b00010001000001000000011000 N
b00010001000001000000011000 9
b00010001000001000000011000 [
0-
1/
b011 *
b00010 4
b00100 5
b00010 6
b000000000000000000000000000000000000000000000000000000000010011010101010101001100 W
b00000000000000000000000000000000 $
0.
0/
00
b000 *
b00000 4
b00000 5
b00000 6
b000000000000000000000000000000000000000000000000000000000010011100100111101010000 W
b00000000000000000000000000011000 P
0Y
b00000 X
b00000000000000000000000000011100 P
b00000000000000000000000000100100 >
b00000000000000000000000000100100 \
b00000000000000000000000000100100 C
b00000000000000000000000000100100 g
b00101 A
b100 ,
b00010 8
0;
b00000 K
b00001 c
b00000000000000000000000000000000 d
b00000000000000000000000000000000 H
b00001 I
b00000 _
b00000000000000000001000000011000 a
0b
b000 f
b00010001000001000000011000 ^
b00010001000001000000011000 :
b00010001000001000000011000 j
b00000 7
b00000000000000000000000000100100 m
b00101001000000000000000000 p
b00100 r
b00101 u
b100 z
b00010 {
#80000
0!
#85000
1!
b00000000000000000000000000001001 #
b00000000010001000001000000011000 $
1.
1/
10
b011 *
b00010 4
b00100 5
b00010 6
b000000000000000000000000000000000000000000000000000000000010011010101010101001100 W
b00000000000000000000000000100000 P
b000 +
b00000000000000000001000000011000 3
b00000000000000000001000000011000 i
b00000000000000000000000000000000 >
b00100 8
b00000000000000000000000000100100 k
b00000000000000000000000000100100 E
b00000000000000000000000000100100 w
b00010 <
1;
b00000000 y
b000000 x
b00010 K
0e
b00010 _
b00100 `
b011 f
b00010 7
b000 l
b00000000000000000001000000011000 o
b00010001000001000000011000 p
b00000 r
b00100 {
b00000000000000000000000000100100 |
#90000
0!
#95000
1!
b00000000000000000000000000001010 #
b00001000 O
b00000000001000100000100000100001 $
b00000000000000000000100000100001 M
b00000000000000000000100000100001 2
b00001000100000100000100001 N
b00001000100000100000100001 9
b00001000100000100000100001 [
b001 *
b00001 4
b00010 5
b00001 6
b000000000000000000000000000000000000000000000000001000001010001000100010001010101 W
b00000000000000000000000000100100 P
b011 +
b00000000000000000000000000000000 \
b00000000000000000000000000000000 C
b00000000000000000000000000000000 g
b00010 A
b00100 B
b000 ,
b00000 8
b00100 <
b00100100 y
b001001 x
b00000000000000000000000000000010 =
b00000000000000000000000000000010 J
b00100 K
1e
b00010 c
b00010 I
b00001 _
b00010 `
b00000000000000000000100000100001 a
b001 f
b00001000100000100000100001 ^
b00001000100000100000100001 :
b00001000100000100000100001 j
b00001 7
b011 l
b00000000000000000000000000000000 m
b00010 r
b00010 u
b00100 v
b000 z
b00000 {
#100000
0!
#105000
1!
b00000000000000000000000000001011 #
b00001001 O
b00100100011000110000000000000100 $
b00000000000000000000000000000100 M
b00000000000000000000000000000100 2
b00011000110000000000000100 N
b00011000110000000000000100 9
b00011000110000000000000100 [
1-
0/
b010 *
b00011 4
b00011 6
b000000000000000000000000000000000000000000100000101000100010001000100100101010101 W
b00000000000000000000000000101000 P
b001 +
b00000000000000000000100000100001 3
b00000000000000000000100000100001 i
b00001 A
b00010 B
b011 ,
b00010 8
b00000000000000000000000000000010 n
b00000000000000000000000000000000 k
b00000000000000000000000000000000 E
b00000000000000000000000000000000 w
b00010 s
b00000000000000000000000000000000 =
0;
b00000000000000000000000000000000 J
b00000 K
b00100 c
b00000000000000000000000000000010 d
b00000000000000000000000000000010 H
b00100 I
b00011 _
b00000000000000000000000000000100 a
1b
b010 f
b00011000110000000000000100 ^
b00011000110000000000000100 :
b00011000110000000000000100 j
b00011 7
b001 l
b00000000000000000000000000000000 n
b00000000000000000000100000100001 o
b00001000100000100000100001 p
b00001 r
b00001 u
b00010 v
b011 z
b00010 {
b00000000000000000000000000000000 |
#110000
0!
#115000
1!
b00000000000000000000000000001100 #
b00001010 O
b00100100101001010000000000000100 $
b00101001010000000000000100 N
b00101001010000000000000100 9
b00101001010000000000000100 [
b00101 4
b00101 6
b00000000000000000000000000101100 P
b010 +
b00000000000000000000000000000100 3
b00000000000000000000000000000100 i
b00011 A
b00000000000000000000000000000100 ]
b00000000000000000000000000000100 D
b00000000000000000000000000000100 h
b00000 B
b001 ,
b00001 8
b00000 s
b00010 <
1;
b00010 K
0e
b00000000000000000000000000000000 d
b00101 _
b00101001010000000000000100 ^
b00101001010000000000000100 :
b00101001010000000000000100 j
b00101 7
b010 l
b00000000000000000000000000000100 n
b00000000000000000000000000000100 o
b00011000110000000000000100 p
b00011 r
b00011 u
b00000 v
b001 z
b00001 {
#120000
0!
#125000
1!
b00000000000000000000000000001101 #
b00001011 O
b00100100111001111111111111111111 $
b11111111111111111111111111111111 M
b11111111111111111111111111111111 2
b00111001111111111111111111 N
b00111001111111111111111111 9
b00111001111111111111111111 [
b00111 4
b00111 6
b00000000000000000000000000110000 P
b00000000000000000000000000100100 >
b00000000000000000000000000100100 \
b00000000000000000000000000100100 C
b00000000000000000000000000100100 g
b00101 A
b010 ,
b00011 8
b00000000000000000000000000000100 k
b00000000000000000000000000000100 E
b00000000000000000000000000000100 w
b00001 <
b00001 K
1e
b00010 c
b00000000000000000000000000000000 H
b00010 I
b00111 _
b11111111111111111111111111111111 a
b00111001111111111111111111 ^
b00111001111111111111111111 :
b00111001111111111111111111 j
b00111 7
b00000000000000000000000000100100 m
b00101001010000000000000100 p
b00101 r
b00101 u
b010 z
b00011 {
b00000000000000000000000000000100 |
#130000
0!
#135000
1!
b00000000000000000000000000001110 #
b00001100 O
b00001011111111111111111111110111 $
b11111111111111111111111111110111 M
b11111111111111111111111111110111 2
b11111111111111111111110111 N
b11111111111111111111110111 9
b11111111111111111111110111 [
b00000000000000000000000000010000 S
1V
0-
0.
00
11
b111 *
b000000000000000000000000000000000000000000000000000000000000000000000000001001010 W
b00000000000000000000000000110100 P
b11111111111111111111111111111111 3
b11111111111111111111111111111111 i
b00000000000000000000000000001001 >
b00000000000000000000000000001001 \
b00000000000000000000000000001001 C
b00000000000000000000000000001001 g
b00111 A
b11111111111111111111111111111111 ]
b11111111111111111111111111111111 D
b11111111111111111111111111111111 h
b00101 8
b00000000000000000000000000101000 k
b00000000000000000000000000101000 E
b00000000000000000000000000101000 w
b00011 <
b00000000000000000000000000000100 =
b00000000000000000000000000000100 J
b00011 K
b00001 c
b00001 I
b11111111111111111111111111110111 a
0b
b111 f
b11111111111111111111110111 ^
b11111111111111111111110111 :
b11111111111111111111110111 j
b00000000000000000000000000001001 m
b11111111111111111111111111111111 n
b11111111111111111111111111111111 o
b00111001111111111111111111 p
b00111 r
b00111 u
b00101 {
b00000000000000000000000000101000 |
#140000
0!
#145000
1!
b00000000000000000000000000001111 #
b00000000000000000000000000010000 P
0V
b00000100 O
b00010000111000000000000000001000 $
b00000000000000000000000000001000 M
b00000000000000000000000000001000 2
b00111000000000000000001000 N
b00111000000000000000001000 9
b00111000000000000000001000 [
1U
1-
1.
1/
01
b101 *
b00000 5
b00000 6
b000000000000000000000000000000000000000000000000000000000010000100100010101010001 W
b00000000000000000000000000010100 P
b111 +
b11111111111111111111111111110111 3
b11111111111111111111111111110111 i
b00000000000000000000000000000000 ]
b00000000000000000000000000000000 D
b00000000000000000000000000000000 h
b00010 B
b00111 8
b00000000000000000000000000001000 k
b00000000000000000000000000001000 E
b00000000000000000000000000001000 w
b00000000000000000000000000000000 =
b00101 <
b00000000000000000000000000101000 =
b00000000000000000000000000101000 J
b00101 K
b00011 c
b00000000000000000000000000000100 d
b00000000000000000000000000000100 H
b00011 I
b00000 `
b00000000000000000000000000001000 a
1b
b101 f
b00111000000000000000001000 ^
b00111000000000000000001000 :
b00111000000000000000001000 j
b00000 7
b111 l
b00000000000000000000000000000000 n
b11111111111111111111111111110111 o
b11111111111111111111110111 p
b00010 v
b00111 {
b00000000000000000000000000001000 |
#150000
0!
#155000
1!
b00000000000000000000000000010000 #
b00000101 O
b10001100011000100000000000000000 $
b00000000000000000000000000000000 M
b00000000000000000000000000000000 2
b00011000100000000000000000 N
b00011000100000000000000000 9
b00011000100000000000000000 [
0U
0/
10
b100 *
b00011 4
b00010 6
b000000000000000000000000000000000000000000000000000000000000000000100110001010111 W
1Y
b00010 X
b00000000000000000000000000011000 P
b101 +
b00000000000000000000000000001000 3
b00000000000000000000000000001000 i
b00000 B
b111 ,
b00000000000000000000000000000000 =
b00111 <
b00000000000000000000000000001000 =
b00000000000000000000000000001000 J
b00111 K
b00101 c
b00000000000000000000000000101000 d
b00000000000000000000000000101000 H
b00101 I
b00011 _
b00000000000000000000000000000000 a
b100 f
b00011000100000000000000000 ^
b00011000100000000000000000 :
b00011000100000000000000000 j
b00010 7
b101 l
b00000000000000000000000000001000 o
b00111000000000000000001000 p
b00000 r
b00000 v
b111 z
#160000
0!
#165000
1!
b00000000000000000000000000010001 #
b00000110 O
b10001100101001000000000000000000 $
b00101001000000000000000000 N
b00101001000000000000000000 9
b00101001000000000000000000 [
b00101 4
b00100 6
b00100 X
b00000000000000000000000000011100 P
b100 +
b00000000000000000000000000000000 3
b00000000000000000000000000000000 i
b00000000000000000000000000000100 >
b00000000000000000000000000000100 \
b00000000000000000000000000000100 C
b00000000000000000000000000000100 g
b00011 A
b101 ,
b00000 8
b00000000000000000000000000001000 m
b00000000000000000000000000000000 =
0;
b00000000000000000000000000000000 J
b00111 c
b00000000000000000000000000001000 d
b00000000000000000000000000001000 H
b00111 I
b00101 _
b00101001000000000000000000 ^
b00101001000000000000000000 :
b00101001000000000000000000 j
b00100 7
b100 l
b00000000000000000000000000000100 m
b00000000000000000000000000000000 o
b00011000100000000000000000 p
b00010 r
b00011 u
b101 z
b00000 {
#170000
0!
#175000
1!
b00000000000000000000000000010010 #
b00000111 O
b00000000010001000001000000011000 $
b00000000000000000001000000011000 M
b00000000000000000001000000011000 2
b00010001000001000000011000 N
b00010001000001000000011000 9
b00010001000001000000011000 [
0-
1/
b011 *
b00010 4
b00100 5
b00010 6
b000000000000000000000000000000000000000000000000000000000010011010101010101001100 W
b00000000000000000000000000000000 $
0.
0/
00
b000 *
b00000 4
b00000 5
b00000 6
b000000000000000000000000000000000000000000000000000000000010011100100111101010000 W
b00000000000000000000000000011000 P
0Y
b00000 X
b00000000000000000000000000011100 P
b00000000000000000000000000101000 >
b00000000000000000000000000101000 \
b00000000000000000000000000101000 C
b00000000000000000000000000101000 g
b00101 A
b100 ,
b00010 8
b00000000000000000000000000000100 k
b00000000000000000000000000000100 E
b00000000000000000000000000000100 w
b00000 K
0e
b00000000000000000000000000000000 d
b00000 _
b00000000000000000001000000011000 a
0b
b000 f
b00010001000001000000011000 ^
b00010001000001000000011000 :
b00010001000001000000011000 j
b00000 7
b00000000000000000000000000101000 m
b00101001000000000000000000 p
b00100 r
b00101 u
b100 z
b00010 {
b00000000000000000000000000000100 |
#180000
0!
#185000
1!
b00000000000000000000000000010011 #
b00000000010001000001000000011000 $
1.
1/
10
b011 *
b00010 4
b00100 5
b00010 6
b000000000000000000000000000000000000000000000000000000000010011010101010101001100 W
b00000000000000000000000000100000 P
b000 +
b00000000000000000001000000011000 3
b00000000000000000001000000011000 i
b00000000000000000000000000000000 >
b00100 8
b00000000000000000000000000101000 k
b00000000000000000000000000101000 E
b00000000000000000000000000101000 w
b00010 <
1;
b00000100 y
b000001 x
b00000000000000000000000000000001 =
b00000000000000000000000000000001 J
b00010 K
b00010 _
b00100 `
b011 f
b00010 7
b000 l
b00000000000000000001000000011000 o
b00010001000001000000011000 p
b00000 r
b00100 {
b00000000000000000000000000101000 |
#190000
0!
#195000
1!
b00000000000000000000000000010100 #
b00001000 O
b00000000001000100000100000100001 $
b00000000000000000000100000100001 M
b00000000000000000000100000100001 2
b00001000100000100000100001 N
b00001000100000100000100001 9
b00001000100000100000100001 [
b001 *
b00001 4
b00010 5
b00001 6
b000000000000000000000000000000000000000000000000001000001010001000100010001010101 W
b00000000000000000000000000100100 P
b011 +
b00000000000000000000000000000010 ?
b00000000000000000000000000000000 \
b00000000000000000000000000000000 C
b00000000000000000000000000000000 g
b00010 A
b00000000000000000000000000000010 ]
b00000000000000000000000000000010 D
b00000000000000000000000000000010 h
b00100 B
b000 ,
b00000 8
b00000000000000000000000000000000 =
b00100 <
b00101000 y
b001010 x
b00000000000000000000000000000011 =
b00000000000000000000000000000011 J
b00100 K
1e
b00010 c
b00000000000000000000000000000001 d
b00000000000000000000000000000001 H
b00010 I
b00001 _
b00010 `
b00000000000000000000100000100001 a
b001 f
b00001000100000100000100001 ^
b00001000100000100000100001 :
b00001000100000100000100001 j
b00001 7
b011 l
b00000000000000000000000000000000 m
b00000000000000000000000000000010 n
b00010 r
b00010 u
b00100 v
b000 z
b00000 {
#200000
0!
